{
  "type": "service_account",
  "project_id": "pruebas-softnight",
  "private_key_id": "4202233689817dcba55c2e9ac8904c51f41708eb",
  "private_key": "-----BEGIN PRIVATE KEY-----\nMIIEvgIBADANBgkqhkiG9w0BAQEFAASCBKgwggSkAgEAAoIBAQDUeFNRYva99JlX\nQU9DVQTNMIp3Sqn275Kj3lHPoPJEsr5oM1wVKoXZ4cUYutgyxWWK17YECnPyHkDh\nJOTjrZ9WUtMsbHTGe29DYhRCm6HiXamJAdJOfrTy/2I9Vpe+H0CGK0/QtknTLbMp\n37vMiasW+gTdXXTAFTWAEUD98FOTmdFS9DyL4uY4C3XoEp4B7vxLbeajqNopSAmb\nlPakYV68rjjJ4Tq1JtuL4OYo64XMnDq13J9SJHfQRzDoJlPILrgIBp54wd8xsB6U\nYDH9GtrfJlHn091sruWq4iP+DNX8BCvEc/zq0J4sVbehbSh/K17M98X9Bc3c4dBA\n5NQhSUBJAgMBAAECggEACzDgw5JEuIXd/0NqfTuIxpV6T5T0TZQ6Cy1KLhdWN2Ha\nR1MANEGyfeLHPrmVqlvtEKJyvPT/fSbUiD9JGohiMnnnk0kNoAgvmLMdadI4dTu1\ncqjQxs9j8MIcjqpFUQ9klsSIfk/hpNC9BXU6NyhfpXTLBY1W+UiMsjeGbrGmN0mL\n0FzaDdOW7okxhiAX4tbFEa4xllRSNECfz668rLJQ0DSVkabcBpqEwnWqaJ53zTSB\nZAdcOyWQjmngz6V/R6hAiTvsrIHoD5yoNbyNQ8wG5kwcqUiv6xY1kEP0OfD92w62\nct7QmzyC61FLZIhf9/613JO0csW6EOqMuRNjtW4zAQKBgQDxsF03fRJyl3o4xuKJ\n8qcAXHRF/cJCNG28cCGGggpUUQMbQbVdCKdd6UcJln2hS5de1RrsWbrhRvu2IoEz\nASda++OLsHk7WPcM/8+F8K+dYT7bQJsauNeX97aZQzM48qnEBWEyxnKUJU7rVyBk\nDsAeQ0KVJZAPPjDgq83ATbolAQKBgQDhDQwcMVEpBQVDAH3wX7xtG/tJHa4dxKQo\ndHz83zIdxCSJSCyhprXE9nAnqLcKlTlb4UtTWxBYmlartVDPhVic3+blslD/LSsu\nWELDn/i39ODuVOAaS8gNTQKDFvGevRcjqxEo5kZ2ZEUplL+gZYD27cRH74pfsMAc\nPyx4hlWzSQKBgQCPNZK2m2y/69PnKqn3VYnxI9dd1bQyqIBRhRvIaOuX9HzjvLar\njsIlWmHWY47DcVgbQCj43V5nuDjUPnPR9iAMwG6fSg07xkZ1NGsSEYDtvz6QiiKd\n3eMZ0BUpkXEbkGZZmVpzzLT95XFy76howXjDNdWRLLXE4nPx3LtI9IWVAQKBgGPR\ncamfhiv3ehn5weI31E9gtdf8Phod+eGnqThPlt70/G+Xf5RDaSPvWld80ZL0FPjX\nuJ1EKr/h1MdcKHei4WbTOIpwyNQlqJ1psFMsRRjymEGdi7ieHCEqIw8ZwhlyLS04\n1ueZG2+vka2buFLgMo9Tblepu2ot70eYDZV3n9NhAoGBAMSFrhBcYTHyvU1zYiRT\nU0Bd33wvndSNSUP+7HQp//3AhAXLDuQutafxSbHiP7W1zAnzZF7UnvVFFjR466Ib\nadwIUndGul85RYTEst/0OdQeZ/486JoIJegFNA/TVaJZUFxyrcrQaCMzoayDu2Im\nIpqZDBBn3xNbcEYpJ7hW35Mj\n-----END PRIVATE KEY-----\n",
  "client_email": "firebase-adminsdk-8njbo@pruebas-softnight.iam.gserviceaccount.com",
  "client_id": "113454369871273325447",
  "auth_uri": "https://accounts.google.com/o/oauth2/auth",
  "token_uri": "https://oauth2.googleapis.com/token",
  "auth_provider_x509_cert_url": "https://www.googleapis.com/oauth2/v1/certs",
  "client_x509_cert_url": "https://www.googleapis.com/robot/v1/metadata/x509/firebase-adminsdk-8njbo%40pruebas-softnight.iam.gserviceaccount.com"
}
